1.3.2 Compare nnfor::mlp() models • tswgewrapped
…
ASEs = mdl_compare$get_tabular_metrics(ases = TRUE)
print(ASEs)
#> # A tibble: 6 x 5
#>   Model                      ASE Time_Test_Start Time_Test_End Batch
#>   
#> 1 reps15_hd5_sdetFALSE 0.0000449             131           132     1
#> 2 reps15_hd5_sdetFALSE 0.000605              133           134     2
#> 3 reps15_hd5_sdetFALSE 0.0000461             135           136     3
#> 4 reps19_hd2_sdetFALSE 0.000124              131           132     1
#> 5 reps19_hd2_sdetFALSE 0.000163              133           134     2
#> 6 reps19_hd2_sdetFALSE 0.0000810             135           136     3

forecasts = mdl_compare$get_tabular_metrics(ases = FALSE)
print(forecasts)
#> # A tibble: 148 x 5
#>    Model                 Time     f    ll    ul
#>    
#>  1 reps15_hd5_sdetFALSE   131  8.23  8.23  8.23
#>  2 reps15_hd5_sdetFALSE   132  8.23  8.23  8.23
#>  3 reps15_hd5_sdetFALSE   133  8.22  8.22  8.22
#>  4 reps15_hd5_sdetFALSE   134  8.22  8.22  8.22
#>  5 reps15_hd5_sdetFALSE   135  8.26  8.26  8.26
#>  6 reps15_hd5_sdetFALSE   136  8.27  8.27  8.27
#>  7 reps19_hd2_sdetFALSE   131  8.23  8.23  8.23
#>  8 reps19_hd2_sdetFALSE   132  8.24  8.24  8.24
#>  9 reps19_hd2_sdetFALSE   133  8.23  8.23  8.23
#> 10 reps19_hd2_sdetFALSE   134  8.23  8.23  8.23
#> # ... with 138 more rows
…
