1.2.2 Compare Multivariate VAR Models • tswgewrapped
…
Raw Data and Metrics

ASEs = mdl_compare$get_tabular_metrics(ases = TRUE)
print(ASEs)
#> # A tibble: 300 x 5
#>    Model          ASE Time_Test_Start Time_Test_End Batch
#>    
#>  1 AIC None 0.000685               37            38     1
#>  2 AIC None 0.000220               39            40     2
#>  3 AIC None 0.000335               41            42     3
#>  4 AIC None 0.0000418              43            44     4
#>  5 AIC None 0.000231               45            46     5
#>  6 AIC None 0.000560               47            48     6
#>  7 AIC None 0.0000166              49            50     7
#>  8 AIC None 0.0000129              51            52     8
#>  9 AIC None 0.0000701              53            54     9
#> 10 AIC None 0.000173               55            56    10
#> # ... with 290 more rows

forecasts = mdl_compare$get_tabular_metrics(ases = FALSE)
print(forecasts)
#> # A tibble: 952 x 5
#>    Model     Time     f    ll    ul
#>    
#>  1 AIC None     1    NA    NA    NA
#>  2 AIC None     2    NA    NA    NA
#>  3 AIC None     3    NA    NA    NA
#>  4 AIC None     4    NA    NA    NA
#>  5 AIC None     5    NA    NA    NA
#>  6 AIC None     6    NA    NA    NA
#>  7 AIC None     7    NA    NA    NA
#>  8 AIC None     8    NA    NA    NA
#>  9 AIC None     9    NA    NA    NA
#> 10 AIC None    10    NA    NA    NA
#> # ... with 942 more rows
…
