2.0 Combine Models • tswgewrapped
…
Forecasts

forecasts = mdl_combine$get_tabular_metrics(ases = FALSE)
forecasts
#> # A tibble: 958 x 5
#>    Model     Time     f    ll    ul
#>    
#>  1 Univar A     1    NA    NA    NA
#>  2 Univar A     2    NA    NA    NA
#>  3 Univar A     3    NA    NA    NA
#>  4 Univar A     4    NA    NA    NA
#>  5 Univar A     5    NA    NA    NA
#>  6 Univar A     6    NA    NA    NA
#>  7 Univar A     7    NA    NA    NA
#>  8 Univar A     8    NA    NA    NA
#>  9 Univar A     9    NA    NA    NA
#> 10 Univar A    10    NA    NA    NA
#> # ... with 948 more rows
…
