ModelCompareUnivariate • tswgewrapped
…
#> $forecasts
#> # A tibble: 576 x 5
#>    Model                  Time     f    ll    ul
#>    <chr>                 <dbl> <dbl> <dbl> <dbl>
#>  1 Woodward Gray Model B     1    NA    NA    NA
#>  2 Woodward Gray Model B     2    NA    NA    NA
#>  3 Woodward Gray Model B     3    NA    NA    NA
#>  4 Woodward Gray Model B     4    NA    NA    NA
#>  5 Woodward Gray Model B     5    NA    NA    NA
#>  6 Woodward Gray Model B     6    NA    NA    NA
#>  7 Woodward Gray Model B     7    NA    NA    NA
#>  8 Woodward Gray Model B     8    NA    NA    NA
#>  9 Woodward Gray Model B     9    NA    NA    NA
#> 10 Woodward Gray Model B    10    NA    NA    NA
#> # ... with 566 more rows
…
forecasts = mdl_compare$get_tabular_metrics(ases = FALSE)
print(forecasts)
#> # A tibble: 1,008 x 5
#>    Model                  Time     f    ll    ul
#>    
#>  1 Woodward Gray Model A     1    NA    NA    NA
#>  2 Woodward Gray Model A     2    NA    NA    NA
#>  3 Woodward Gray Model A     3    NA    NA    NA
#>  4 Woodward Gray Model A     4    NA    NA    NA
#>  5 Woodward Gray Model A     5    NA    NA    NA
#>  6 Woodward Gray Model A     6    NA    NA    NA
#>  7 Woodward Gray Model A     7    NA    NA    NA
#>  8 Woodward Gray Model A     8    NA    NA    NA
#>  9 Woodward Gray Model A     9    NA    NA    NA
#> 10 Woodward Gray Model A    10    NA    NA    NA
#> # ... with 998 more rows
…
#> $forecasts
#> # A tibble: 576 x 5
#>    Model                  Time     f    ll    ul
#>    <chr>                 <dbl> <dbl> <dbl> <dbl>
#>  1 Woodward Gray Model B     1    NA    NA    NA
#>  2 Woodward Gray Model B     2    NA    NA    NA
#>  3 Woodward Gray Model B     3    NA    NA    NA
#>  4 Woodward Gray Model B     4    NA    NA    NA
#>  5 Woodward Gray Model B     5    NA    NA    NA
#>  6 Woodward Gray Model B     6    NA    NA    NA
#>  7 Woodward Gray Model B     7    NA    NA    NA
#>  8 Woodward Gray Model B     8    NA    NA    NA
#>  9 Woodward Gray Model B     9    NA    NA    NA
#> 10 Woodward Gray Model B    10    NA    NA    NA
#> # ... with 566 more rows
…
#> 133  133 6.033086
#> 134  134 5.968708
#> 135  135 6.037871
#> 136  136 6.133398
#> 137  137 6.156979
#> 138  138 6.282267
#> 139  139 6.432940
#> 140  140 6.406880
#> 141  141 6.230481
#> 142  142 6.133398
#> 143  143 5.966147
#> 144  144 6.068426
#> 
#> $ASEs
#> # A tibble: 432 x 7
#> # Groups:   Model [3]
#>     Time Model       ASE.x ASE.y Batch Index   ASE
#>    <dbl> <chr>       <dbl> <dbl> <dbl> <chr> <dbl>
#>  1     1 Box Model B     0    NA    NA <NA>     NA
#>  2     2 Box Model B     0    NA    NA <NA>     NA
#>  3     3 Box Model B     0    NA    NA <NA>     NA
#>  4     4 Box Model B     0    NA    NA <NA>     NA
#>  5     5 Box Model B     0    NA    NA <NA>     NA
#>  6     6 Box Model B     0    NA    NA <NA>     NA
#>  7     7 Box Model B     0    NA    NA <NA>     NA
#>  8     8 Box Model B     0    NA    NA <NA>     NA
#>  9     9 Box Model B     0    NA    NA <NA>     NA
#> 10    10 Box Model B     0    NA    NA <NA>     NA
#> # ... with 422 more rows
…
#> $forecasts
#> # A tibble: 432 x 5
#>    Model                  Time     f    ll    ul
#>    <chr>                 <dbl> <dbl> <dbl> <dbl>
#>  1 Woodward Gray Model B     1    NA    NA    NA
#>  2 Woodward Gray Model B     2    NA    NA    NA
#>  3 Woodward Gray Model B     3    NA    NA    NA
#>  4 Woodward Gray Model B     4    NA    NA    NA
#>  5 Woodward Gray Model B     5    NA    NA    NA
#>  6 Woodward Gray Model B     6    NA    NA    NA
#>  7 Woodward Gray Model B     7    NA    NA    NA
#>  8 Woodward Gray Model B     8    NA    NA    NA
#>  9 Woodward Gray Model B     9    NA    NA    NA
#> 10 Woodward Gray Model B    10    NA    NA    NA
#> # ... with 422 more rows
…
#> 133  133 6.033086
#> 134  134 5.968708
#> 135  135 6.037871
#> 136  136 6.133398
#> 137  137 6.156979
#> 138  138 6.282267
#> 139  139 6.432940
#> 140  140 6.406880
#> 141  141 6.230481
#> 142  142 6.133398
#> 143  143 5.966147
#> 144  144 6.068426
#> 
#> $ASEs
#> # A tibble: 288 x 7
#> # Groups:   Model [2]
#>     Time Model       ASE.x ASE.y Batch Index   ASE
#>    <dbl> <chr>       <dbl> <dbl> <dbl> <chr> <dbl>
#>  1     1 Box Model B     0    NA    NA <NA>     NA
#>  2     2 Box Model B     0    NA    NA <NA>     NA
#>  3     3 Box Model B     0    NA    NA <NA>     NA
#>  4     4 Box Model B     0    NA    NA <NA>     NA
#>  5     5 Box Model B     0    NA    NA <NA>     NA
#>  6     6 Box Model B     0    NA    NA <NA>     NA
#>  7     7 Box Model B     0    NA    NA <NA>     NA
#>  8     8 Box Model B     0    NA    NA <NA>     NA
#>  9     9 Box Model B     0    NA    NA <NA>     NA
#> 10    10 Box Model B     0    NA    NA <NA>     NA
#> # ... with 278 more rows
…
