R6 class ModelCompareUnivariate — ModelCompareUnivariate • tswgewrapped
…
#> $forecasts
#> # A tibble: 576 x 5
#>    Model                  Time     f    ll    ul
#>    <chr>                 <dbl> <dbl> <dbl> <dbl>
#>  1 Woodward Gray Model B     1    NA    NA    NA
#>  2 Woodward Gray Model B     2    NA    NA    NA
#>  3 Woodward Gray Model B     3    NA    NA    NA
#>  4 Woodward Gray Model B     4    NA    NA    NA
#>  5 Woodward Gray Model B     5    NA    NA    NA
#>  6 Woodward Gray Model B     6    NA    NA    NA
#>  7 Woodward Gray Model B     7    NA    NA    NA
#>  8 Woodward Gray Model B     8    NA    NA    NA
#>  9 Woodward Gray Model B     9    NA    NA    NA
#> 10 Woodward Gray Model B    10    NA    NA    NA
#> # ... with 566 more rows
…
# This method returns the metrics (ASE values) or forecasts for each model
# 'only_sliding' If set to TRUE, only the models that use a sliding window 
#                ASE calculation will be returned
# 'ases' If set to TRUE, this method will return the ASE value(s) 
#        Single value for models that don't use sliding ASEs and 
#        Multiple values (one per batch) for models that use sliding window
#        ASE calculations
#        If set to FALSE, this function will return the model forecasts and 
#        upper and lower confidence intervals. 
forecasts = mdl_compare$get_tabular_metrics(ases = FALSE)
print(forecasts)
#> # A tibble: 1,008 x 5
#>    Model                  Time     f    ll    ul
#>    <chr>                 <dbl> <dbl> <dbl> <dbl>
#>  1 Woodward Gray Model A     1    NA    NA    NA
#>  2 Woodward Gray Model A     2    NA    NA    NA
#>  3 Woodward Gray Model A     3    NA    NA    NA
#>  4 Woodward Gray Model A     4    NA    NA    NA
#>  5 Woodward Gray Model A     5    NA    NA    NA
#>  6 Woodward Gray Model A     6    NA    NA    NA
#>  7 Woodward Gray Model A     7    NA    NA    NA
#>  8 Woodward Gray Model A     8    NA    NA    NA
#>  9 Woodward Gray Model A     9    NA    NA    NA
#> 10 Woodward Gray Model A    10    NA    NA    NA
#> # ... with 998 more rows
…
